{
  "window": {
    "start": "2026-07-17T17:06:01Z",
    "end": "2026-07-19T17:06:01Z"
  },
  "pages": [
    {
      "page": 1,
      "totalCount": 18,
      "limit": 10,
      "nextCursor": "reportType=ITEM&requestSubmissionStartDate=2026-07-17T17:06:01Z&requestSubmissionEndDate=2026-07-19T17:06:01Z&page=2&limit=10",
      "requests": [
        {
          "requestId": "019f7b53-e11e-77bc-9d19-4987c18651ab",
          "requestStatus": "RECEIVED",
          "requestSubmissionDate": "2026-07-19T17:02:02Z",
          "reportType": "ITEM",
          "reportVersion": "v2",
          "reportSummary": "reportSummary",
          "src": "API",
          "channelType": "26c0c31d-216b-4fd7-98c6-2cf889bc1653",
          "payload": {}
        },
        {
          "requestId": "019f7aaf-6597-77a1-b24e-9edd954c3e0b",
          "requestStatus": "READY",
          "requestSubmissionDate": "2026-07-19T14:02:23Z",
          "reportType": "ITEM",
          "reportVersion": "v2",
          "reportSummary": "reportSummary",
          "src": "API",
          "channelType": "26c0c31d-216b-4fd7-98c6-2cf889bc1653",
          "payload": {},
          "reportGenerationDate": "2026-07-19T14:58:09Z"
        },
        {
          "requestId": "019f7a0a-cc0a-75c6-b83b-70360c38d544",
          "requestStatus": "READY",
          "requestSubmissionDate": "2026-07-19T11:02:35Z",
          "reportType": "ITEM",
          "reportVersion": "v2",
          "reportSummary": "reportSummary",
          "src": "API",
          "channelType": "26c0c31d-216b-4fd7-98c6-2cf889bc1653",
          "payload": {},
          "reportGenerationDate": "2026-07-19T12:06:09Z"
        },
        {
          "requestId": "019f7966-32c9-7ff9-8c5b-6cfa0e6833ac",
          "requestStatus": "READY",
          "requestSubmissionDate": "2026-07-19T08:02:48Z",
          "reportType": "ITEM",
          "reportVersion": "v2",
          "reportSummary": "reportSummary",
          "src": "API",
          "channelType": "26c0c31d-216b-4fd7-98c6-2cf889bc1653",
          "payload": {},
          "reportGenerationDate": "2026-07-19T09:02:36Z"
        },
        {
          "requestId": "019f78c0-51c8-756a-b615-27b3e8bbdc5c",
          "requestStatus": "READY",
          "requestSubmissionDate": "2026-07-19T05:01:37Z",
          "reportType": "ITEM",
          "reportVersion": "v2",
          "reportSummary": "reportSummary",
          "src": "API",
          "channelType": "26c0c31d-216b-4fd7-98c6-2cf889bc1653",
          "payload": {},
          "reportGenerationDate": "2026-07-19T05:33:58Z"
        },
        {
          "requestId": "019f781a-ce85-7632-a294-cb061ae90b64",
          "requestStatus": "READY",
          "requestSubmissionDate": "2026-07-19T02:00:50Z",
          "reportType": "ITEM",
          "reportVersion": "v2",
          "reportSummary": "reportSummary",
          "src": "API",
          "channelType": "26c0c31d-216b-4fd7-98c6-2cf889bc1653",
          "payload": {},
          "reportGenerationDate": "2026-07-19T02:34:09Z"
        },
        {
          "requestId": "019f7776-1eec-771a-ad1d-20b6995f2e0b",
          "requestStatus": "READY",
          "requestSubmissionDate": "2026-07-18T23:00:57Z",
          "reportType": "ITEM",
          "reportVersion": "v2",
          "reportSummary": "reportSummary",
          "src": "API",
          "channelType": "26c0c31d-216b-4fd7-98c6-2cf889bc1653",
          "payload": {},
          "reportGenerationDate": "2026-07-19T00:17:05Z"
        },
        {
          "requestId": "019f7709-25db-7bb5-b8aa-1e0cbf287a6c",
          "requestStatus": "READY",
          "requestSubmissionDate": "2026-07-18T21:01:56Z",
          "reportType": "ITEM",
          "reportVersion": "v2",
          "reportSummary": "reportSummary",
          "src": "API",
          "channelType": "26c0c31d-216b-4fd7-98c6-2cf889bc1653",
          "payload": {},
          "reportGenerationDate": "2026-07-18T21:30:38Z"
        },
        {
          "requestId": "019f7664-93b1-745b-9b92-08f64238225d",
          "requestStatus": "READY",
          "requestSubmissionDate": "2026-07-18T18:02:10Z",
          "reportType": "ITEM",
          "reportVersion": "v2",
          "reportSummary": "reportSummary",
          "src": "API",
          "channelType": "26c0c31d-216b-4fd7-98c6-2cf889bc1653",
          "payload": {},
          "reportGenerationDate": "2026-07-18T18:47:41Z"
        },
        {
          "requestId": "019f75bf-79e1-7d30-9fa4-67cc8fa38fc7",
          "requestStatus": "READY",
          "requestSubmissionDate": "2026-07-18T15:01:50Z",
          "reportType": "ITEM",
          "reportVersion": "v2",
          "reportSummary": "reportSummary",
          "src": "API",
          "channelType": "26c0c31d-216b-4fd7-98c6-2cf889bc1653",
          "payload": {},
          "reportGenerationDate": "2026-07-18T15:43:35Z"
        }
      ]
    }
  ]
}